Open Case Studies : Disparities in Youth Disconnection
…
values_to - which specifies the name of the new column that will be created that will contain the values from the columns you are collapsing

To specify that we want to collapse all the columns that have year values, we can chose those that contain the string "20" using the contains() function of dplyr.

major_groups_long <- major_groups %>%
  tidyr::pivot_longer(cols = contains("20"),
                  names_to = "Year",
                 values_to = "Percent",
              names_prefix = "Perc_") %>%
  dplyr::mutate(Year = as.numeric(Year))

major_groups_long

# A tibble: 108 x 5
   Group         Race_Ethnicity Gender  Year Percent
   <chr>         <chr>          <chr>  <dbl>   <dbl>
 1 United States All_races      All     2008    12.6
 2 United States All_races      All     2010    14.7
 3 United States All_races      All     2012    14.1
 4 United States All_races      All     2014    13.2
 5 United States All_races      All     2016    11.7
 6 United States All_races      All     2017    11.5
 7 Male          All_races      Male    2008    12.3
 8 Male          All_races      Male    2010    15.2
 9 Male          All_races      Male    2012    14.5
10 Male          All_races      Male    2014    13.3
# … with 98 more rows
…
make_rows <- function(text){
  text %>%
  str_split("\n") %>%
  unlist() %>%
  as_tibble()
}

Great! Now let’s apply our function to the asian_subgroups data!

asian_subgroups <- make_rows(asian_subgroups) 

asian_subgroups

# A tibble: 33 x 1
   value             
   <chr>             
 1 United States 11.5
 2 Male 11.8         
 3 Female 11.1       
 4 ASIAN 6.8         
 5 Asian Male 65     
 6 Asian Female 67   
 7 CHINESE 43        
 8 Chinese Male AT   
 9 Chinese Female 3.9
10 VIETNAMESE 5.5    
# … with 23 more rows
…
Much better!

We can now combine the objects with the bind_rows() function of the dplyr package, which will append each of these tibbles together one after the other.

asian_sub_2017 <-bind_rows(Asian_sub_A, 
                           Asian_sub_B,
                           Asian_sub_C)

asian_sub_2017

# A tibble: 28 x 1
   value             
   <chr>             
 1 United States 11.5
 2 Male 11.8         
 3 Female 11.1       
 4 ASIAN 6.6         
 5 Asian Male 6.5    
 6 Asian Female 6.7  
 7 CHINESE 4.3       
 8 Chinese Male 4.7  
 9 Chinese Female 3.9
10 VIETNAMESE 5.5    
# … with 18 more rows
…
}

asian_sub_2017 <- clean_table(table = asian_sub_2017)
asian_sub_2017

# A tibble: 25 x 4
   Group          Percent Race_Ethnicity Gender
   <chr>            <dbl> <chr>          <chr> 
 1 United States     11.5 All_races      All   
 2 Male              11.8 All_races      Male  
 3 Female            11.1 All_races      Female
 4 Asian              6.6 Asian          All   
 5 Asian Male         6.5 Asian          Male  
 6 Asian Female       6.7 Asian          Female
 7 Chinese            4.3 Chinese        All   
 8 Chinese Male       4.7 Chinese        Male  
 9 Chinese Female     3.9 Chinese        Female
10 Vietnamese         5.5 Vietnamese     All   
# … with 15 more rows
…
asian_sub_2018_A <- image_read(here::here("img", "asian_sub_2018_A.png"))
asian_sub_2018_A <- image_ocr(asian_sub_2018_A)
asian_sub_2018_B <- image_read(here::here("img", "asian_sub_2018_B.png"))
asian_sub_2018_B <- image_ocr(asian_sub_2018_B)
asian_sub_2018 <-str_c(asian_sub_2018_A, asian_sub_2018_B)

asian_sub_2018 <- make_rows(asian_sub_2018)

asian_sub_2018

# A tibble: 23 x 1
   value         
   <chr>         
 1 "CHINESE : 41"
 2 "Men 4.5"     
 3 "Women : 3.7" 
 4 ""            
 5 "INDIAN 5.4"  
 6 "Men 4.7"     
 7 "Women : 6.1" 
 8 ""            
 9 "KOREAN : 5.5"
10 "Men 5.6"     
# … with 13 more rows

Now we need to modify our function a bit for this new data.

Firstly, we now have colons : in our table that we will want to separate by. Unfortunately, the text in each row isn’t extracted in the same way by the OCR.Thus some rows have only a space, while others have spaces around a colon; or for the row with VIETNAM we see a colon directly after the word followed by a space. Thus we will modify our seperate() function with this change. We can specify that the separator between any letter and any digit should be either a space (\\s) or a colon with a space before and after it (\\s:\\s) using the or (|)opperator.

So this will look like this:

asian_sub_2018 %>%
    separate(., col = value,
               into = c("Group", "Percent"), 
                sep =  "(?<=[:alpha:])\\s:\\s|\\s(?=[0-9])")

# A tibble: 23 x 2
   Group     Percent
   <chr>     <chr>  
 1 "CHINESE" 41     
 2 "Men"     4.5    
 3 "Women"   3.7    
 4 ""        <NA>   
 5 "INDIAN"  5.4    
 6 "Men"     4.7    
 7 "Women"   6.1    
 8 ""        <NA>   
 9 "KOREAN"  5.5    
10 "Men"     5.6    
# … with 13 more rows
…
OK, now we just want to combine the 2018 data and the 2017 data for the asian subgroups.

First let’s add a varaible for year to both. Using mutate() we can add a variable Year where all values are 2017 like so:

asian_sub_2017 %<>%
  mutate(Year = 2017)
asian_sub_2017 

# A tibble: 25 x 5
   Group          Percent Race_Ethnicity Gender  Year
   <chr>            <dbl> <chr>          <chr>  <dbl>
 1 United States     11.5 All_races      All     2017
 2 Male              11.8 All_races      Male    2017
 3 Female            11.1 All_races      Female  2017
 4 Asian              6.6 Asian          All     2017
 5 Asian Male         6.5 Asian          Male    2017
 6 Asian Female       6.7 Asian          Female  2017
 7 Chinese            4.3 Chinese        All     2017
 8 Chinese Male       4.7 Chinese        Male    2017
 9 Chinese Female     3.9 Chinese        Female  2017
10 Vietnamese         5.5 Vietnamese     All     2017
# … with 15 more rows
…
Now we just need to combine all the data for the Latinx subgroups.

Again, first we will add a year variable to both the 2017 and 2018 data.

latinx_sub_2017 %<>%
  mutate(Year = 2017)

latinx_sub_2018 %<>%
  mutate(Year = 2018)

latinx_subgroups <- bind_rows(latinx_sub_2017, latinx_sub_2018)
latinx_subgroups

# A tibble: 32 x 5
   Group                   Percent Race_Ethnicity   Gender  Year
   <chr>                     <dbl> <chr>            <chr>  <dbl>
 1 Latinx                     13.2 Latinx           All     2017
 2 Latinx Male                12.4 Latinx           Male    2017
 3 Latinx Female              13.9 Latinx           Female  2017
 4 South American              8.4 South American   All     2017
 5 South American Male         9.1 South American   Male    2017
 6 South American Female       7.7 South American   Female  2017
 7 Central American           12   Central American All     2017
 8 Central American Male       9.3 Central American Male    2017
 9 Central American Female    15   Central American Female  2017
10 Mexican                    13.3 Mexican          All     2017
# … with 22 more rows

Checking the data

OK, now let’s make sure that our notations match across our different tables. For example in the first report the terms male and female where used, but in the second report men and women were used. Let’s make sure everything is consistent now.

major_groups_long

# A tibble: 108 x 5
   Group         Race_Ethnicity Gender  Year Percent
   <chr>         <chr>          <chr>  <dbl>   <dbl>
 1 United States All_races      All     2008    12.6
 2 United States All_races      All     2010    14.7
 3 United States All_races      All     2012    14.1
 4 United States All_races      All     2014    13.2
 5 United States All_races      All     2016    11.7
 6 United States All_races      All     2017    11.5
 7 Male          All_races      Male    2008    12.3
 8 Male          All_races      Male    2010    15.2
 9 Male          All_races      Male    2012    14.5
10 Male          All_races      Male    2014    13.3
# … with 98 more rows

asian_subgroups

# A tibble: 45 x 5
   Group          Percent Race_Ethnicity Gender  Year
   <chr>            <dbl> <chr>          <chr>  <dbl>
 1 United States     11.5 All_races      All     2017
 2 Male              11.8 All_races      Male    2017
 3 Female            11.1 All_races      Female  2017
 4 Asian              6.6 Asian          All     2017
 5 Asian Male         6.5 Asian          Male    2017
 6 Asian Female       6.7 Asian          Female  2017
 7 Chinese            4.3 Chinese        All     2017
 8 Chinese Male       4.7 Chinese        Male    2017
 9 Chinese Female     3.9 Chinese        Female  2017
10 Vietnamese         5.5 Vietnamese     All     2017
# … with 35 more rows

latinx_subgroups

# A tibble: 32 x 5
   Group                   Percent Race_Ethnicity   Gender  Year
   <chr>                     <dbl> <chr>            <chr>  <dbl>
 1 Latinx                     13.2 Latinx           All     2017
 2 Latinx Male                12.4 Latinx           Male    2017
 3 Latinx Female              13.9 Latinx           Female  2017
 4 South American              8.4 South American   All     2017
 5 South American Male         9.1 South American   Male    2017
 6 South American Female       7.7 South American   Female  2017
 7 Central American           12   Central American All     2017
 8 Central American Male       9.3 Central American Male    2017
 9 Central American Female    15   Central American Female  2017
10 Mexican                    13.3 Mexican          All     2017
# … with 22 more rows
…
scales - define how your data will be plotted

continuous, discrete, log, etc

The function aes() is an aesthetic mapping function inside the ggplot() object. We use this function to specify plot attributes (e.g. x and y variable names) that will not change as we add more layers.

Anything that goes in the ggplot() object becomes a global setting. From there, we use the geom objects to add more layers to the base ggplot() object. These will define what we are interested in illustrating using the data.

So for this first plot we just want to recreate the plot in the PDF. Thus we will use the major_groups_long tibble and we will filter for the "All" values of the Gender package. We also want to exclude the data for the United states. We can exclude the data from the US using the not equals != opperator like so:

major_groups_long %>%
   filter(Gender == "All",
          Group != "United States")

# A tibble: 30 x 5
   Group Race_Ethnicity Gender  Year Percent
   <chr> <chr>          <chr>  <dbl>   <dbl>
 1 Asian Asian          All     2008     7.1
 2 Asian Asian          All     2010     8.5
 3 Asian Asian          All     2012     7.8
 4 Asian Asian          All     2014     7.9
 5 Asian Asian          All     2016     6.6
 6 Asian Asian          All     2017     6.6
 7 White White          All     2008     9.7
 8 White White          All     2010    11.7
 9 White White          All     2012    11.2
10 White White          All     2014    10.8
# … with 20 more rows
…
This shows the importance of adding small details such as the US and Asian rate lines. This helps provide a simple yet nuanced picture of what is going on.

From the above plot, it becomes readily apparent that the Hmong subgroup has much higher disconnection rates than the other Asian subgroups, as well as all races/ethnicities in the US combined.

We can confirm this by revisiting the table.

knitr::include_graphics(here("img", "asian_2017_overview.png"))

From the table, we can caluculate that the Hmong group represents 6% of all Asian disconnected youth.

latinx_subgroups

# A tibble: 32 x 5
   Group                   Percent Race_Ethnicity   Gender  Year
   <chr>                     <dbl> <chr>            <chr>  <dbl>
 1 Latinx                     13.2 Latinx           All     2017
 2 Latinx Male                12.4 Latinx           Male    2017
 3 Latinx Female              13.9 Latinx           Female  2017
 4 South American              8.4 South American   All     2017
 5 South American Male         9.1 South American   Male    2017
 6 South American Female       7.7 South American   Female  2017
 7 Central American           12   Central American All     2017
 8 Central American Male       9.3 Central American Male    2017
 9 Central American Female    15   Central American Female  2017
10 Mexican                    13.3 Mexican          All     2017
# … with 22 more rows
…
