Open Case Studies : Youth Disconnection
…
The data come from a PDF that can be found here.

Data Import

We import the data using the pdftools and here packages.

From the output, its clear that a large amount of manipulation will be required to wrangle this data with the pdftools package.

pdf_data_example <- pdftools::pdf_data(here("Making the Connection.pdf"))

utils::head(pdf_data_example, 1)

[[1]]
# A tibble: 51 x 6
   width height     x     y space text    
   <int>  <int> <int> <int> <lgl> <chr>   
 1    74     23    36    53 TRUE  KRISTEN 
 2    54     23   115    53 FALSE LEWIS   
 3    31     11    36    79 TRUE  Rupsha  
 4    20     11    69    79 TRUE  Basu    
 5     2     11    94    79 TRUE  |       
 6    34     11   101    79 TRUE  REPORT  
 7    43     11   138    79 FALSE DESIGNER
 8    34     11    36    92 TRUE  Rebecca 
 9    31     11    73    92 TRUE  Gluskin 
10     2     11   109    92 TRUE  |       
#  with 41 more rows
…
Parts of the table depicted in the image above contain newline characters. A newline character denotes the end of a line of text and the start of a new line of text.

This makes it more difficult to wrangle this table. Wrangling the data via regular expressions may be very tedious. Its unlikely that image processing software can handle the newline charactersor any other special characterscorrectly.

Using image_ocr() by magick on the image above will render some errors in the first few lines.

df1 <- magick::image_ocr(image_example)

df1 %>%
  base::strsplit("\n") %>%
  base::unlist() %>%
  tibble::as_tibble()

# A tibble: 21 x 1
   value                                                  
   <chr>                                                  
 1 Youth Disconnection by Gender and by Race and Ethnicity
 2 byte) ee                                               
 3 MAJOR RACIAL AND Cr erent) ed Nas                      
 4 United States 126 147 14.1 13.21.7115 4,501,800 22.1   
 5 Male 12.3 15.2 14.5 13.3 12.1 11.8 2,382,500 -22.5     
 6 Female 12.9 14.1 13.7 13.0 11.2 11.1 2,119,400 -21.7   
 7 ASIAN 71 85 78 19 66 66 145,600 -21.7                  
 8 Asian Male 6.3 8.3 74 7.2 6.7 65 73,000 -21.4          
 9 Asian Female 7.9 8.6 8.1 8.6 6.6 6.7 72,600 -22.0      
10 WHITE 97 210897 9.4 1,961,700 -20.1                    
#  with 11 more rows
…
